<?xml version="1.0"?>
<robot name="mira">

    <material name="green">
        <color rgba="0 0.8 0 1"/>
    </material>

    <link name="base_link">
        <visual>
        <origin rpy="0 0 0" xyz="0 0 0"/>
        <geometry>
            <box size="0.25 0.25 0.25"/> x-length,y-legth and z-length
        </geometry>
        <material name="green"/>
        </visual>
    </link>
  
    <link name="roll_M1_link">
        <visual>
            <origin rpy="0 0 0" xyz="0 0 0"/>
            <geometry>
                <sphere radius="0.04"/>
            </geometry>
        </visual>
    </link>
    
    <joint name="roll_joint" type="revolute">
        <parent link="base_link"/>
        <child link="roll_M1_link"/>
        <origin xyz="0 0 0.16" rpy="0.5 0.75 1"/>
        <limit lower="-0.5" upper="0.5" effort="0.1" velocity="0.005"/>
        <axis xyz="0 0 1"/>
    </joint>
  
</robot>